{
  "contents": [
    {
      "name": "PT ABC",
      "amount": 1000000,
      "tenor": 120,
      "grade": "A",
      "rate": 12,
      "sub": null
    },
    {
      "name": "PT DEF",
      "amount": 2000000,
      "tenor": 120,
      "grade": "A",
      "rate": 12,
      "sub": null
    },
    {
      "name": "PT GHI",
      "amount": 50000000,
      "tenor": 120,
      "grade": "A",
      "rate": 12,
      "sub": null
    },
    {
      "name": "PT JKL",
      "amount": 10000000,
      "tenor": 120,
      "grade": "A",
      "rate": 12,
      "sub": null
    },
    {
      "name": "PT MNO",
      "amount": 20000000,
      "tenor": 120,
      "grade": "B+",
      "rate": 14,
      "sub": null
    },
    {
      "name": "PT PQR",
      "amount": 100000000,
      "tenor": 120,
      "grade": "A",
      "rate": 12,
      "sub": null
    },
    {
      "name": "PT STU",
      "amount": 2000000,
      "tenor": 120,
      "grade": "B",
      "rate": 16,
      "sub": null
    },
    {
      "name": "PT VWX",
      "amount": 10000000,
      "tenor": 120,
      "grade": "A",
      "rate": 12,
      "sub": null
    },
    {
      "name": "PT YZ",
      "amount": 1000000,
      "tenor": 120,
      "grade": "B",
      "rate": 16,
      "sub": null
    },
    {
      "name": "PT AB",
      "amount": 4000000,
      "tenor": 120,
      "grade": "B+",
      "rate": 14,
      "sub": null
    },
    {
      "name": "PT BCAB",
      "amount": 1000000,
      "tenor": 120,
      "grade": "A",
      "rate": 12,
      "sub": null
    },
    {
      "name": "PT DFG",
      "amount": 2000000,
      "tenor": 120,
      "grade": "A",
      "rate": 12,
      "sub": null
    },
    {
      "name": "PT RTZ",
      "amount": 50000000,
      "tenor": 120,
      "grade": "A",
      "rate": 12,
      "sub": null
    },
    {
      "name": "PT MORPH",
      "amount": 10000000,
      "tenor": 120,
      "grade": "A",
      "rate": 12,
      "sub": null
    },
    {
      "name": "PT JUG",
      "amount": 20000000,
      "tenor": 120,
      "grade": "B+",
      "rate": 14,
      "sub": null
    },
    {
      "name": "PT JCOX",
      "amount": 100000000,
      "tenor": 120,
      "grade": "A",
      "rate": 12,
      "sub": null
    },
    {
      "name": "PT SPOT",
      "amount": 2000000,
      "tenor": 120,
      "grade": "B",
      "rate": 16,
      "sub": null
    },
    {
      "name": "PT GHJ",
      "amount": 10000000,
      "tenor": 120,
      "grade": "A",
      "rate": 12,
      "sub": null
    },
    {
      "name": "PT QWER",
      "amount": 1000000,
      "tenor": 120,
      "grade": "B",
      "rate": 16,
      "sub": null
    },
    {
      "name": "PT YUI",
      "amount": 4000000,
      "tenor": 120,
      "grade": "B+",
      "rate": 14,
      "sub": null
    }
  ]
}